name: 'Biens immobiliers'
description: |-

  Gestion des annonces de biens (appartements, villas, terrains, etc.).
endpoints:
  -
    httpMethods:
      - GET
    uri: api/properties
    metadata:
      groupName: 'Biens immobiliers'
      groupDescription: |-

        Gestion des annonces de biens (appartements, villas, terrains, etc.).
      subgroup: ''
      subgroupDescription: ''
      title: 'Liste des biens'
      description: |-
        Retourne la liste paginée des biens immobiliers avec filtres optionnels.
        Les agents ne voient que leurs propres biens. Les admins voient tout.
      authenticated: true
      custom: []
    headers:
      Authorization: 'Bearer {VOTRE_TOKEN_SANCTUM}'
      Content-Type: application/json
      Accept: application/json
    urlParameters: []
    cleanUrlParameters: []
    queryParameters:
      city:
        name: city
        description: 'Filtrer par ville.'
        required: false
        example: Alger
        type: string
        enumValues: []
        exampleWasSpecified: true
        nullable: false
        custom: []
      type:
        name: type
        description: 'Type de bien (appartement, villa, terrain, bureau, commerce, maison, studio).'
        required: false
        example: villa
        type: string
        enumValues: []
        exampleWasSpecified: true
        nullable: false
        custom: []
      status:
        name: status
        description: 'Statut du bien (disponible, vendu, location).'
        required: false
        example: disponible
        type: string
        enumValues: []
        exampleWasSpecified: true
        nullable: false
        custom: []
      min_price:
        name: min_price
        description: 'Prix minimum en DA.'
        required: false
        example: 5000000.0
        type: number
        enumValues: []
        exampleWasSpecified: true
        nullable: false
        custom: []
      max_price:
        name: max_price
        description: 'Prix maximum en DA.'
        required: false
        example: 50000000.0
        type: number
        enumValues: []
        exampleWasSpecified: true
        nullable: false
        custom: []
      search:
        name: search
        description: 'Recherche full-text sur le titre et la description.'
        required: false
        example: piscine
        type: string
        enumValues: []
        exampleWasSpecified: true
        nullable: false
        custom: []
      per_page:
        name: per_page
        description: 'Nombre de résultats par page (défaut: 15, max: 100).'
        required: false
        example: 10
        type: integer
        enumValues: []
        exampleWasSpecified: true
        nullable: false
        custom: []
      sort_by:
        name: sort_by
        description: 'Champ de tri : price, created_at, surface, rooms.'
        required: false
        example: price
        type: string
        enumValues: []
        exampleWasSpecified: true
        nullable: false
        custom: []
      sort_dir:
        name: sort_dir
        description: 'Direction du tri : asc ou desc.'
        required: false
        example: asc
        type: string
        enumValues: []
        exampleWasSpecified: true
        nullable: false
        custom: []
    cleanQueryParameters:
      city: Alger
      type: villa
      status: disponible
      min_price: 5000000.0
      max_price: 50000000.0
      search: piscine
      per_page: 10
      sort_by: price
      sort_dir: asc
    bodyParameters:
      city:
        name: city
        description: 'Must not be greater than 100 characters.'
        required: false
        example: kfcinhwiqxsryw
        type: string
        enumValues: []
        exampleWasSpecified: false
        nullable: false
        custom: []
      type:
        name: type
        description: ''
        required: false
        example: villa
        type: string
        enumValues:
          - appartement
          - villa
          - terrain
          - bureau
          - commerce
          - maison
          - studio
        exampleWasSpecified: false
        nullable: false
        custom: []
      status:
        name: status
        description: ''
        required: false
        example: vendu
        type: string
        enumValues:
          - disponible
          - vendu
          - location
        exampleWasSpecified: false
        nullable: false
        custom: []
      min_price:
        name: min_price
        description: 'Must be at least 0.'
        required: false
        example: 21
        type: number
        enumValues: []
        exampleWasSpecified: false
        nullable: false
        custom: []
      max_price:
        name: max_price
        description: 'Must be at least 0.'
        required: false
        example: 40
        type: number
        enumValues: []
        exampleWasSpecified: false
        nullable: false
        custom: []
      search:
        name: search
        description: 'Must not be greater than 255 characters.'
        required: false
        example: zwgilfjmlfzlmabnbvktqld
        type: string
        enumValues: []
        exampleWasSpecified: false
        nullable: false
        custom: []
      per_page:
        name: per_page
        description: 'Must be at least 1. Must not be greater than 100.'
        required: false
        example: 2
        type: integer
        enumValues: []
        exampleWasSpecified: false
        nullable: false
        custom: []
      sort_by:
        name: sort_by
        description: ''
        required: false
        example: surface
        type: string
        enumValues:
          - price
          - created_at
          - surface
          - rooms
        exampleWasSpecified: false
        nullable: false
        custom: []
      sort_dir:
        name: sort_dir
        description: ''
        required: false
        example: desc
        type: string
        enumValues:
          - asc
          - desc
        exampleWasSpecified: false
        nullable: false
        custom: []
    cleanBodyParameters:
      city: kfcinhwiqxsryw
      type: villa
      status: vendu
      min_price: 21
      max_price: 40
      search: zwgilfjmlfzlmabnbvktqld
      per_page: 2
      sort_by: surface
      sort_dir: desc
    fileParameters: []
    responses:
      -
        status: 200
        content: |-
          {
            "data": [{ "id": 1, "title": "Villa 4 pièces à Alger", "type": "villa", "price": 38000000 }],
            "meta": { "current_page": 1, "last_page": 3, "per_page": 15, "total": 42 }
          }
        headers: []
        description: ''
        custom: []
    responseFields: []
    auth:
      - headers
      - Authorization
      - 'Bearer 1ZD36ghfE46de8v5VkPaabc'
    controller: null
    method: null
    route: null
    custom: []
  -
    httpMethods:
      - GET
    uri: api/properties/trashed
    metadata:
      groupName: 'Biens immobiliers'
      groupDescription: |-

        Gestion des annonces de biens (appartements, villas, terrains, etc.).
      subgroup: ''
      subgroupDescription: ''
      title: 'Corbeille des biens supprimés'
      description: |-
        Liste paginée des biens en corbeille (soft-deleted).
        Rôle requis : admin uniquement.
      authenticated: true
      custom: []
    headers:
      Authorization: 'Bearer {VOTRE_TOKEN_SANCTUM}'
      Content-Type: application/json
      Accept: application/json
    urlParameters: []
    cleanUrlParameters: []
    queryParameters:
      per_page:
        name: per_page
        description: 'Résultats par page. Défaut: 15.'
        required: false
        example: 10
        type: integer
        enumValues: []
        exampleWasSpecified: true
        nullable: false
        custom: []
    cleanQueryParameters:
      per_page: 10
    bodyParameters: []
    cleanBodyParameters: []
    fileParameters: []
    responses:
      -
        status: 200
        content: |-
          {
            "data": [{ "id": 3, "title": "Studio 1 pièce à Annaba" }],
            "meta": { "current_page": 1, "total": 3 }
          }
        headers: []
        description: ''
        custom: []
      -
        status: 403
        content: '{ "message": "Seul un administrateur peut consulter la corbeille." }'
        headers: []
        description: ''
        custom: []
    responseFields: []
    auth:
      - headers
      - Authorization
      - 'Bearer 3hc5fd8DZ616vbaegPa4VEk'
    controller: null
    method: null
    route: null
    custom: []
  -
    httpMethods:
      - GET
    uri: 'api/properties/{id}'
    metadata:
      groupName: 'Biens immobiliers'
      groupDescription: |-

        Gestion des annonces de biens (appartements, villas, terrains, etc.).
      subgroup: ''
      subgroupDescription: ''
      title: 'Détail d’un bien'
      description: |-
        Retourne les informations complètes d’un bien et ses images.
        Les guests ne peuvent voir que les biens publiés.
      authenticated: true
      custom: []
    headers:
      Authorization: 'Bearer {VOTRE_TOKEN_SANCTUM}'
      Content-Type: application/json
      Accept: application/json
    urlParameters:
      id:
        name: id
        description: 'ID du bien.'
        required: true
        example: 1
        type: integer
        enumValues: []
        exampleWasSpecified: true
        nullable: false
        custom: []
    cleanUrlParameters:
      id: 1
    queryParameters: []
    cleanQueryParameters: []
    bodyParameters: []
    cleanBodyParameters: []
    fileParameters: []
    responses:
      -
        status: 200
        content: |-
          {
            "id": 1, "title": "Villa 4 pièces à Alger", "type": "villa",
            "agent": { "id": 2, "name": "Karim Benamara" },
            "images": [{ "id": 1, "url": "http://localhost/storage/properties/1/photo.jpg", "is_cover": true }]
          }
        headers: []
        description: ''
        custom: []
      -
        status: 403
        content: '{ "message": "Ce bien n''est pas disponible." }'
        headers: []
        description: ''
        custom: []
      -
        status: 404
        content: '{ "message": "Ressource introuvable." }'
        headers: []
        description: ''
        custom: []
    responseFields: []
    auth:
      - headers
      - Authorization
      - 'Bearer dDa1ZE83k6aPb4V5g6cefvh'
    controller: null
    method: null
    route: null
    custom: []
  -
    httpMethods:
      - PATCH
    uri: 'api/properties/{property}/restore'
    metadata:
      groupName: 'Biens immobiliers'
      groupDescription: |-

        Gestion des annonces de biens (appartements, villas, terrains, etc.).
      subgroup: ''
      subgroupDescription: ''
      title: 'Restaurer un bien'
      description: |-
        Restaure un bien précédemment mis en corbeille.
        Rôle requis : admin uniquement.
      authenticated: true
      custom: []
    headers:
      Authorization: 'Bearer {VOTRE_TOKEN_SANCTUM}'
      Content-Type: application/json
      Accept: application/json
    urlParameters:
      property:
        name: property
        description: 'ID du bien en corbeille.'
        required: true
        example: 3
        type: integer
        enumValues: []
        exampleWasSpecified: true
        nullable: false
        custom: []
    cleanUrlParameters:
      property: 3
    queryParameters: []
    cleanQueryParameters: []
    bodyParameters: []
    cleanBodyParameters: []
    fileParameters: []
    responses:
      -
        status: 200
        content: '{ "message": "Bien restauré avec succès.", "data": { "id": 3, "title": "Studio 1 pièce à Annaba" } }'
        headers: []
        description: ''
        custom: []
      -
        status: 403
        content: '{ "message": "Seul un administrateur peut restaurer un bien." }'
        headers: []
        description: ''
        custom: []
      -
        status: 404
        content: '{ "message": "Ressource introuvable." }'
        headers: []
        description: ''
        custom: []
    responseFields: []
    auth:
      - headers
      - Authorization
      - 'Bearer 6DfbEk83vV45cadgZ6ah1Pe'
    controller: null
    method: null
    route: null
    custom: []
  -
    httpMethods:
      - DELETE
    uri: 'api/properties/{property}/force'
    metadata:
      groupName: 'Biens immobiliers'
      groupDescription: |-

        Gestion des annonces de biens (appartements, villas, terrains, etc.).
      subgroup: ''
      subgroupDescription: ''
      title: 'Suppression définitive d’un bien'
      description: |-
        Supprime irréversiblement un bien et toutes ses images depuis la corbeille.
        Rôle requis : admin uniquement.
      authenticated: true
      custom: []
    headers:
      Authorization: 'Bearer {VOTRE_TOKEN_SANCTUM}'
      Content-Type: application/json
      Accept: application/json
    urlParameters:
      property:
        name: property
        description: 'ID du bien en corbeille.'
        required: true
        example: 3
        type: integer
        enumValues: []
        exampleWasSpecified: true
        nullable: false
        custom: []
    cleanUrlParameters:
      property: 3
    queryParameters: []
    cleanQueryParameters: []
    bodyParameters: []
    cleanBodyParameters: []
    fileParameters: []
    responses:
      -
        status: 200
        content: '{ "message": "Bien définitivement supprimé." }'
        headers: []
        description: ''
        custom: []
      -
        status: 403
        content: '{ "message": "Seul un administrateur peut supprimer définitivement un bien." }'
        headers: []
        description: ''
        custom: []
      -
        status: 404
        content: '{ "message": "Ressource introuvable." }'
        headers: []
        description: ''
        custom: []
    responseFields: []
    auth:
      - headers
      - Authorization
      - 'Bearer ab1Da54dc63hvE68fVkgeZP'
    controller: null
    method: null
    route: null
    custom: []
  -
    httpMethods:
      - POST
    uri: api/properties
    metadata:
      groupName: 'Biens immobiliers'
      groupDescription: |-

        Gestion des annonces de biens (appartements, villas, terrains, etc.).
      subgroup: ''
      subgroupDescription: ''
      title: 'Créer un bien'
      description: |-
        Crée une nouvelle annonce immobilière. Le titre est généré automatiquement.
        Rôles autorisés : admin, agent.
      authenticated: true
      custom: []
    headers:
      Authorization: 'Bearer {VOTRE_TOKEN_SANCTUM}'
      Content-Type: application/json
      Accept: application/json
    urlParameters: []
    cleanUrlParameters: []
    queryParameters: []
    cleanQueryParameters: []
    bodyParameters:
      type:
        name: type
        description: 'Type de bien : appartement, villa, terrain, bureau, commerce, maison, studio.'
        required: true
        example: villa
        type: string
        enumValues: []
        exampleWasSpecified: true
        nullable: false
        custom: []
      price:
        name: price
        description: 'Prix en DA.'
        required: true
        example: 38000000.0
        type: number
        enumValues: []
        exampleWasSpecified: true
        nullable: false
        custom: []
      city:
        name: city
        description: 'Ville du bien.'
        required: true
        example: Alger
        type: string
        enumValues: []
        exampleWasSpecified: true
        nullable: false
        custom: []
      status:
        name: status
        description: 'Statut (disponible, vendu, location). Défaut: disponible.'
        required: false
        example: disponible
        type: string
        enumValues: []
        exampleWasSpecified: true
        nullable: false
        custom: []
      rooms:
        name: rooms
        description: 'Nombre de pièces.'
        required: false
        example: 4
        type: integer
        enumValues: []
        exampleWasSpecified: true
        nullable: true
        custom: []
      surface:
        name: surface
        description: 'Surface en m².'
        required: false
        example: 250.5
        type: number
        enumValues: []
        exampleWasSpecified: true
        nullable: true
        custom: []
      address:
        name: address
        description: 'Adresse complète.'
        required: false
        example: 'Bab Ezzouar, Alger'
        type: string
        enumValues: []
        exampleWasSpecified: true
        nullable: true
        custom: []
      description:
        name: description
        description: 'Description du bien (max 5000 caractères).'
        required: false
        example: 'Magnifique villa avec piscine.'
        type: string
        enumValues: []
        exampleWasSpecified: true
        nullable: true
        custom: []
      is_published:
        name: is_published
        description: 'Publier immédiatement. Défaut: false.'
        required: false
        example: true
        type: boolean
        enumValues: []
        exampleWasSpecified: true
        nullable: false
        custom: []
    cleanBodyParameters:
      type: villa
      price: 38000000.0
      city: Alger
      status: disponible
      rooms: 4
      surface: 250.5
      address: 'Bab Ezzouar, Alger'
      description: 'Magnifique villa avec piscine.'
      is_published: true
    fileParameters: []
    responses:
      -
        status: 201
        content: '{ "id": 5, "title": "Villa 4 pièces à Alger", "type": "villa", "price": 38000000 }'
        headers: []
        description: ''
        custom: []
      -
        status: 403
        content: '{ "message": "Action non autorisée." }'
        headers: []
        description: ''
        custom: []
      -
        status: 422
        content: '{ "message": "Les données fournies sont invalides.", "errors": { "type": ["Le type de bien est obligatoire."] } }'
        headers: []
        description: ''
        custom: []
    responseFields: []
    auth:
      - headers
      - Authorization
      - 'Bearer fE6aecVh63D81abPv4gkd5Z'
    controller: null
    method: null
    route: null
    custom: []
  -
    httpMethods:
      - PUT
    uri: 'api/properties/{id}'
    metadata:
      groupName: 'Biens immobiliers'
      groupDescription: |-

        Gestion des annonces de biens (appartements, villas, terrains, etc.).
      subgroup: ''
      subgroupDescription: ''
      title: 'Modifier un bien'
      description: |-
        Met à jour les champs d’un bien (PATCH = mise à jour partielle acceptée).
        Le titre est régénéré si type, rooms, city ou status changent.
        Rôles autorisés : admin, agent (propriétaire uniquement).
      authenticated: true
      custom: []
    headers:
      Authorization: 'Bearer {VOTRE_TOKEN_SANCTUM}'
      Content-Type: application/json
      Accept: application/json
    urlParameters:
      id:
        name: id
        description: 'The ID of the property.'
        required: true
        example: 1
        type: integer
        enumValues: []
        exampleWasSpecified: false
        nullable: false
        custom: []
      property:
        name: property
        description: 'ID du bien.'
        required: true
        example: 5
        type: integer
        enumValues: []
        exampleWasSpecified: true
        nullable: false
        custom: []
    cleanUrlParameters:
      id: 1
      property: 5
    queryParameters: []
    cleanQueryParameters: []
    bodyParameters:
      type:
        name: type
        description: 'Type de bien.'
        required: false
        example: appartement
        type: string
        enumValues: []
        exampleWasSpecified: true
        nullable: false
        custom: []
      price:
        name: price
        description: 'Prix en DA.'
        required: false
        example: 25000000.0
        type: number
        enumValues: []
        exampleWasSpecified: true
        nullable: false
        custom: []
      city:
        name: city
        description: Ville.
        required: false
        example: Oran
        type: string
        enumValues: []
        exampleWasSpecified: true
        nullable: false
        custom: []
      status:
        name: status
        description: Statut.
        required: false
        example: vendu
        type: string
        enumValues: []
        exampleWasSpecified: true
        nullable: false
        custom: []
      rooms:
        name: rooms
        description: 'Nombre de pièces.'
        required: false
        example: 3
        type: integer
        enumValues: []
        exampleWasSpecified: true
        nullable: true
        custom: []
      surface:
        name: surface
        description: 'Surface en m².'
        required: false
        example: 120.0
        type: number
        enumValues: []
        exampleWasSpecified: true
        nullable: true
        custom: []
      address:
        name: address
        description: 'Must not be greater than 255 characters.'
        required: false
        example: ohunxwdqrgaylmnzjwthbxz
        type: string
        enumValues: []
        exampleWasSpecified: false
        nullable: true
        custom: []
      description:
        name: description
        description: Description.
        required: false
        example: 'Bel appartement rénové.'
        type: string
        enumValues: []
        exampleWasSpecified: true
        nullable: true
        custom: []
      is_published:
        name: is_published
        description: 'Publier le bien.'
        required: false
        example: true
        type: boolean
        enumValues: []
        exampleWasSpecified: true
        nullable: false
        custom: []
    cleanBodyParameters:
      type: appartement
      price: 25000000.0
      city: Oran
      status: vendu
      rooms: 3
      surface: 120.0
      address: ohunxwdqrgaylmnzjwthbxz
      description: 'Bel appartement rénové.'
      is_published: true
    fileParameters: []
    responses:
      -
        status: 200
        content: '{ "id": 5, "title": "Appartement 3 pièces à Oran - Vendu" }'
        headers: []
        description: ''
        custom: []
      -
        status: 403
        content: '{ "message": "Vous n''\u00eates pas autorisé à modifier ce bien." }'
        headers: []
        description: ''
        custom: []
      -
        status: 404
        content: '{ "message": "Ressource introuvable." }'
        headers: []
        description: ''
        custom: []
    responseFields: []
    auth:
      - headers
      - Authorization
      - 'Bearer aae61v4E3VZ6gfb5cdD8Phk'
    controller: null
    method: null
    route: null
    custom: []
  -
    httpMethods:
      - PATCH
    uri: 'api/properties/{property_id}'
    metadata:
      groupName: 'Biens immobiliers'
      groupDescription: |-

        Gestion des annonces de biens (appartements, villas, terrains, etc.).
      subgroup: ''
      subgroupDescription: ''
      title: 'Modifier un bien'
      description: |-
        Met à jour les champs d’un bien (PATCH = mise à jour partielle acceptée).
        Le titre est régénéré si type, rooms, city ou status changent.
        Rôles autorisés : admin, agent (propriétaire uniquement).
      authenticated: true
      custom: []
    headers:
      Authorization: 'Bearer {VOTRE_TOKEN_SANCTUM}'
      Content-Type: application/json
      Accept: application/json
    urlParameters:
      property_id:
        name: property_id
        description: 'The ID of the property.'
        required: true
        example: 1
        type: integer
        enumValues: []
        exampleWasSpecified: false
        nullable: false
        custom: []
      property:
        name: property
        description: 'ID du bien.'
        required: true
        example: 5
        type: integer
        enumValues: []
        exampleWasSpecified: true
        nullable: false
        custom: []
    cleanUrlParameters:
      property_id: 1
      property: 5
    queryParameters: []
    cleanQueryParameters: []
    bodyParameters:
      type:
        name: type
        description: 'Type de bien.'
        required: false
        example: appartement
        type: string
        enumValues: []
        exampleWasSpecified: true
        nullable: false
        custom: []
      price:
        name: price
        description: 'Prix en DA.'
        required: false
        example: 25000000.0
        type: number
        enumValues: []
        exampleWasSpecified: true
        nullable: false
        custom: []
      city:
        name: city
        description: Ville.
        required: false
        example: Oran
        type: string
        enumValues: []
        exampleWasSpecified: true
        nullable: false
        custom: []
      status:
        name: status
        description: Statut.
        required: false
        example: vendu
        type: string
        enumValues: []
        exampleWasSpecified: true
        nullable: false
        custom: []
      rooms:
        name: rooms
        description: 'Nombre de pièces.'
        required: false
        example: 3
        type: integer
        enumValues: []
        exampleWasSpecified: true
        nullable: true
        custom: []
      surface:
        name: surface
        description: 'Surface en m².'
        required: false
        example: 120.0
        type: number
        enumValues: []
        exampleWasSpecified: true
        nullable: true
        custom: []
      address:
        name: address
        description: 'Must not be greater than 255 characters.'
        required: false
        example: hhwkqm
        type: string
        enumValues: []
        exampleWasSpecified: false
        nullable: true
        custom: []
      description:
        name: description
        description: Description.
        required: false
        example: 'Bel appartement rénové.'
        type: string
        enumValues: []
        exampleWasSpecified: true
        nullable: true
        custom: []
      is_published:
        name: is_published
        description: 'Publier le bien.'
        required: false
        example: true
        type: boolean
        enumValues: []
        exampleWasSpecified: true
        nullable: false
        custom: []
    cleanBodyParameters:
      type: appartement
      price: 25000000.0
      city: Oran
      status: vendu
      rooms: 3
      surface: 120.0
      address: hhwkqm
      description: 'Bel appartement rénové.'
      is_published: true
    fileParameters: []
    responses:
      -
        status: 200
        content: '{ "id": 5, "title": "Appartement 3 pièces à Oran - Vendu" }'
        headers: []
        description: ''
        custom: []
      -
        status: 403
        content: '{ "message": "Vous n''\u00eates pas autorisé à modifier ce bien." }'
        headers: []
        description: ''
        custom: []
      -
        status: 404
        content: '{ "message": "Ressource introuvable." }'
        headers: []
        description: ''
        custom: []
    responseFields: []
    auth:
      - headers
      - Authorization
      - 'Bearer 1hDb6vegaEPdcZka56f3V48'
    controller: null
    method: null
    route: null
    custom: []
  -
    httpMethods:
      - DELETE
    uri: 'api/properties/{id}'
    metadata:
      groupName: 'Biens immobiliers'
      groupDescription: |-

        Gestion des annonces de biens (appartements, villas, terrains, etc.).
      subgroup: ''
      subgroupDescription: ''
      title: 'Supprimer un bien (soft delete)'
      description: |-
        Déplace le bien dans la corbeille (suppression réversible).
        Le bien n’est plus visible mais peut être restauré par un admin.
        Rôles autorisés : admin, agent (propriétaire uniquement).
      authenticated: true
      custom: []
    headers:
      Authorization: 'Bearer {VOTRE_TOKEN_SANCTUM}'
      Content-Type: application/json
      Accept: application/json
    urlParameters:
      id:
        name: id
        description: 'The ID of the property.'
        required: true
        example: 1
        type: integer
        enumValues: []
        exampleWasSpecified: false
        nullable: false
        custom: []
      property:
        name: property
        description: 'ID du bien.'
        required: true
        example: 5
        type: integer
        enumValues: []
        exampleWasSpecified: true
        nullable: false
        custom: []
    cleanUrlParameters:
      id: 1
      property: 5
    queryParameters: []
    cleanQueryParameters: []
    bodyParameters: []
    cleanBodyParameters: []
    fileParameters: []
    responses:
      -
        status: 200
        content: '{ "message": "Bien supprimé avec succès." }'
        headers: []
        description: ''
        custom: []
      -
        status: 403
        content: '{ "message": "Vous n''\u00eates pas autorisé à modifier ce bien." }'
        headers: []
        description: ''
        custom: []
      -
        status: 404
        content: '{ "message": "Ressource introuvable." }'
        headers: []
        description: ''
        custom: []
    responseFields: []
    auth:
      - headers
      - Authorization
      - 'Bearer 8PZg6DVab16f3cEavkd5h4e'
    controller: null
    method: null
    route: null
    custom: []
